EPI Info CDC
…
Clean data and calculate cumulative number of cases

names(cdc)[1:2] <-  c("Date",
                      "Number of new cases")
cdc$cum <- cumsum(cdc$`Number of new cases`)
cdc$Date <- as.Date(cdc$Date,
                    format = "%d-%b-%y")

Data

cdc %>%
  data.frame

## # A tibble: 80 x 16
##    Date       Number.of.new.c~ X3    X16.mar.data X17.mar.data X18.mar.data
##    <date>                <dbl> <lgl>        <dbl>        <dbl>        <dbl>
##  1 2020-01-12                0 NA               0            0            0
##  2 2020-01-13                0 NA               0            0            0
##  3 2020-01-14                3 NA               2            2            2
##  4 2020-01-15                0 NA               0            0            0
##  5 2020-01-16                1 NA               1            1            1
##  6 2020-01-17                0 NA               0            0            0
##  7 2020-01-18                1 NA               0            0            0
##  8 2020-01-19                0 NA               0            0            0
##  9 2020-01-20                1 NA               1            1            1
## 10 2020-01-21                1 NA               1            1            1
## # ... with 70 more rows, and 10 more variables: X19.mar.data <dbl>,
## #   X20.mar.data <dbl>, X23.mar.data <dbl>, X24.mar.data <dbl>,
## #   X25.mar.data <dbl>, X25.mar.data_1 <dbl>, X26.mar.data <dbl>,
## #   X29.mar.data <dbl>, X30.mar.data <dbl>, cum <dbl>
…
